<?xml version="1.0" standalone="no"?>
<!DOCTYPE svg PUBLIC "-//W3C//DTD SVG 20010904//EN"
 "http://www.w3.org/TR/2001/REC-SVG-20010904/DTD/svg10.dtd">
<svg version="1.0" xmlns="http://www.w3.org/2000/svg"
 width="192.000000pt" height="192.000000pt" viewBox="0 0 192.000000 192.000000"
 preserveAspectRatio="xMidYMid meet">
<metadata>
Created by potrace 1.11, written by Peter Selinger 2001-2013
</metadata>
<g transform="translate(0.000000,192.000000) scale(0.100000,-0.100000)"
fill="#000000" stroke="none">
<path d="M26 1498 c3 -5 0 -8 -5 -8 -6 0 -11 -9 -11 -20 0 -18 16 -25 43 -21
4 0 7 -5 7 -11 0 -10 2 -10 8 -1 6 9 16 8 40 -7 28 -17 32 -25 33 -62 4 -285
-2 -883 -9 -890 -5 -5 -22 -11 -38 -13 -16 -2 -31 -4 -34 -5 -3 -2 -9 -2 -14
-1 -4 1 -14 -3 -21 -9 -11 -9 -11 -17 -3 -36 8 -16 15 -21 22 -14 7 5 18 5 25
0 8 -4 21 -5 30 -2 20 8 63 7 84 -1 9 -3 19 -2 22 3 4 7 13 7 24 0 10 -5 21
-7 24 -4 9 9 127 10 127 1 0 -4 8 -3 18 2 10 5 24 6 31 2 7 -5 27 -5 45 -1 17
4 33 7 36 8 3 0 13 4 23 8 16 6 15 9 -9 31 -21 19 -29 22 -35 11 -7 -10 -9
-10 -9 0 0 6 -9 12 -20 12 -11 0 -23 7 -26 15 -4 8 -10 13 -14 10 -10 -6 -10
379 0 395 4 6 10 11 14 11 12 -1 36 -29 36 -42 0 -6 13 -25 30 -40 16 -16 26
-29 20 -29 -5 0 4 -14 20 -32 16 -17 27 -35 24 -40 -3 -4 3 -8 12 -8 10 0 14
-3 11 -7 -4 -3 2 -13 13 -20 11 -8 18 -18 15 -22 -2 -5 4 -16 15 -26 11 -10
20 -22 20 -27 0 -5 9 -18 20 -30 11 -12 20 -28 20 -35 0 -7 4 -13 9 -13 5 0
11 -9 14 -20 6 -22 -19 -54 -34 -45 -5 4 -9 1 -9 -4 0 -6 -7 -11 -15 -11 -15
0 -22 -39 -7 -41 81 -14 102 -16 102 -10 0 3 25 6 55 6 30 0 55 -4 55 -8 0 -4
8 -3 18 2 10 5 24 6 32 1 7 -4 23 -5 35 0 11 4 28 4 37 -1 11 -6 19 -5 23 1 4
6 13 7 24 1 9 -5 22 -6 28 -3 14 9 77 7 92 -2 5 -4 12 -2 16 4 4 6 12 7 24 1
9 -5 22 -6 28 -3 14 9 77 7 92 -2 5 -4 12 -2 16 4 4 7 12 7 24 0 10 -5 21 -7
24 -3 4 3 40 6 81 6 81 0 103 15 69 46 -20 18 -32 20 -52 7 -10 -6 -12 -5 -7
2 5 8 -2 12 -19 12 -28 0 -46 13 -60 45 -10 22 -17 328 -8 358 4 15 12 18 39
15 19 -2 34 -2 34 2 0 3 39 6 87 7 47 1 89 6 92 10 3 4 22 9 41 10 19 1 36 7
38 13 2 5 12 10 22 10 9 0 23 7 30 15 7 8 18 15 26 15 7 0 18 9 24 20 6 11 15
18 21 15 5 -4 9 0 9 9 0 8 4 16 9 18 5 2 20 26 33 54 18 37 24 65 23 110 -2
101 -20 142 -84 201 -55 50 -59 53 -76 53 -8 0 -15 5 -15 10 0 6 -10 10 -23
10 -13 0 -27 3 -31 7 -3 4 -14 8 -24 10 -9 1 -35 6 -57 9 -22 4 -223 7 -447 8
-378 1 -409 0 -423 -16 -8 -10 -10 -18 -4 -18 5 0 7 -4 4 -10 -3 -5 2 -10 13
-10 10 0 22 -3 26 -7 3 -4 14 -8 22 -9 34 -5 41 -13 38 -41 -1 -15 -12 -35
-23 -44 -11 -9 -17 -19 -14 -23 4 -3 -1 -6 -11 -6 -9 0 -14 -4 -11 -10 3 -5 2
-10 -4 -10 -5 0 -28 -18 -50 -40 -23 -23 -41 -38 -41 -35 0 3 -8 -3 -18 -12
-11 -10 -17 -22 -14 -27 3 -5 -2 -7 -11 -3 -11 4 -18 -1 -22 -14 -4 -11 -9
-18 -12 -15 -3 2 -27 -17 -54 -45 -26 -27 -52 -49 -58 -49 -5 0 -12 -7 -15
-16 -3 -8 -10 -12 -16 -9 -5 3 -10 0 -10 -8 0 -7 -6 -14 -14 -14 -21 0 -21
383 1 391 8 3 12 10 9 15 -7 11 12 19 42 16 12 -1 22 2 22 7 0 5 5 6 10 3 6
-3 10 0 10 9 0 8 6 17 13 19 9 4 9 6 -1 6 -7 1 -10 6 -7 11 3 6 3 11 -2 11
-40 6 -500 3 -497 -3z m1058 -235 c-2 -168 -2 -165 -13 -159 -5 3 -14 -1 -21
-9 -7 -8 -9 -15 -4 -15 5 0 2 -5 -6 -10 -8 -5 -10 -10 -3 -10 14 0 11 -26 -5
-42 -9 -9 -15 -7 -27 8 -8 10 -15 25 -15 32 0 7 -4 11 -9 7 -6 -3 -9 3 -8 14
1 11 10 22 22 25 23 6 59 61 50 76 -3 6 -1 10 6 10 8 0 8 4 -1 15 -7 8 -9 15
-6 15 4 0 -9 15 -27 34 -29 28 -40 33 -75 32 -23 -1 -42 2 -42 7 0 11 100 107
112 107 5 0 16 7 25 15 14 14 17 14 32 1 14 -13 16 -36 15 -153z m378 142 c5
-6 8 -4 8 4 0 12 3 12 18 -1 9 -8 24 -18 33 -21 42 -14 104 -146 77 -163 -5
-3 -5 -11 -1 -17 12 -17 9 -88 -5 -114 -7 -12 -12 -29 -12 -39 0 -10 -3 -14
-7 -11 -3 4 -17 -5 -30 -20 -23 -24 -52 -34 -96 -34 -9 0 -15 -5 -11 -10 7
-12 -19 -7 -28 6 -5 6 -8 5 -8 -3 0 -10 -3 -10 -13 0 -11 10 -14 59 -14 218 0
113 1 208 3 211 5 9 79 5 86 -6z m-648 -217 c-1 -18 3 -41 8 -50 6 -12 5 -18
-2 -18 -6 0 -8 -4 -5 -10 3 -5 2 -10 -3 -10 -11 0 -53 -35 -55 -47 -1 -4 -5
-7 -9 -6 -4 2 -5 -4 -2 -12 10 -25 -12 -17 -26 10 -7 13 -16 22 -20 20 -4 -3
-10 6 -12 18 -4 23 14 51 26 40 3 -4 6 1 6 11 0 9 4 15 8 12 5 -3 15 5 22 18
7 13 23 29 36 36 13 7 21 18 17 23 -3 6 -2 8 3 4 5 -3 8 -20 8 -39z m136 -10
c0 -23 -3 -29 -9 -19 -5 7 -13 11 -19 7 -6 -3 -9 1 -7 11 2 10 4 21 4 26 1 4
8 7 16 7 10 0 15 -10 15 -32z m-31 -200 c8 -16 21 -28 30 -29 10 0 7 -4 -7 -9
-25 -11 -50 -9 -70 4 -18 11 -34 55 -25 69 4 7 8 15 9 20 1 4 2 9 3 12 2 10
45 -39 60 -67z m103 -119 c16 -9 19 -8 12 3 -6 11 -5 11 9 -1 14 -11 17 -11
17 0 0 9 5 6 12 -6 7 -11 12 -67 13 -128 1 -88 -2 -110 -14 -115 -8 -3 -16 -1
-18 5 -7 19 -51 62 -57 56 -3 -4 -6 2 -6 13 0 11 -9 26 -20 34 -11 8 -20 20
-20 27 0 7 -4 13 -10 13 -5 0 -10 5 -10 11 0 7 -11 22 -25 35 -27 25 -21 36
25 42 14 2 29 7 35 13 12 12 32 11 57 -2z"/>
</g>
</svg>
